^C:\USERS\ALEX\SOURCE\REPOS\SKILLBOX_HOMEWORK_16\SKILLBOX_HOMEWORK_16.CPP
C:\USERS\ALEX\SOURCE\REPOS\SKILLBOX_HOMEWORK_16\RELEASE\VC142.PDB
C:\USERS\ALEX\SOURCE\REPOS\SKILLBOX_HOMEWORK_16\RELEASE\SKILLBOX_HOMEWORK_16.OBJ
