^C:\USERS\ALEX\SOURCE\REPOS\SKILLBOX_HOMEWORK_16\DEBUG\SKILLBOX_HOMEWORK_16.OBJ
C:\USERS\ALEX\SOURCE\REPOS\SKILLBOX_HOMEWORK_16\DEBUG\SKILLBOX_HOMEWORK_16.EXE
C:\USERS\ALEX\SOURCE\REPOS\SKILLBOX_HOMEWORK_16\DEBUG\SKILLBOX_HOMEWORK_16.ILK
C:\USERS\ALEX\SOURCE\REPOS\SKILLBOX_HOMEWORK_16\DEBUG\SKILLBOX_HOMEWORK_16.PDB
